<?xml version="1.0" encoding="utf-8"?>
<!-- Generator: Adobe Illustrator 23.0.4, SVG Export Plug-In . SVG Version: 6.00 Build 0)  -->
<svg version="1.1" id="Layer_1" xmlns="http://www.w3.org/2000/svg" xmlns:xlink="http://www.w3.org/1999/xlink" x="0px" y="0px"
	 viewBox="0 0 50 50" style="enable-background:new 0 0 50 50;" xml:space="preserve">
<g>
	<path fill="currentColor" d="M13.4,34.2l1.9-1.2c-2-3.2-2.1-8-2.1-8s0.1-4.8,2.1-8l-1.9-1.2H1.7C0.6,18.7,0,21.8,0,25c0,3.2,0.6,6.3,1.7,9.2H13.4z"/>
	<path fill="currentColor" d="M25,0C16.3,0,8.6,4.5,4.1,11.3h10.2c0,0,3.1,1.1,4,2.3c2.2-1.8,4.4-2.6,6.7-2.6c0,0.2,11.8-0.5,11.8,14S25,38.8,25,39
		c-2.3,0-4.5-0.8-6.7-2.6c-0.9,1.2-4,2.3-4,2.3H4.1C8.6,45.5,16.3,50,25,50c13.8,0,25-11.2,25-25S38.8,0,25,0z"/>
	<path fill="currentColor" d="M18.4,21.3c0,0-0.5,1.2-0.5,3.7s0.5,3.7,0.5,3.7c0.5-1.5,0.5-3.7,0.5-3.7S18.9,22.8,18.4,21.3z"/>
	<path fill="currentColor" d="M25,34.4c0,0,7.2,0.1,7.2-9.4S25,15.6,25,15.6s-2.2,0.2-3.5,1.3c1.3,2.3,2,4.4,2,8.1s-0.7,5.8-2,8.1
		C22.8,34.3,25,34.4,25,34.4z"/>
</g>
</svg>
